Introduction to R - Tidyverse data wrangling
…
Tidyverse tools

While all of the tools in the Tidyverse suite are deserving of being explored in more depth, we are going to investigate more deeply the reading (readr), wrangling (dplyr), and plotting (ggplot2) tools.

1. Read in the functional analysis results

While the base R packages have perfectly fine methods for reading in data, the readr and readxl Tidyverse packages offer additional methods for reading in data. Let’s read in our tab-delimited functional analysis results using read_delim():

# Read in the functional analysis results
functional_GO_results <- read_delim(file = "data/gprofiler_results_Mov10oe.txt", delim = "\t" )

# Take a look at the results
functional_GO_results

# A tibble: 3,644 × 14
   query.number significant p.value term.size query.size overlap.size recall
          <dbl> <lgl>         <dbl>     <dbl>      <dbl>        <dbl>  <dbl>
 1            1 TRUE        0.00434       111       5850           52  0.009
 2            1 TRUE        0.0033        110       5850           52  0.009
 3            1 TRUE        0.0297         39       5850           21  0.004
 4            1 TRUE        0.0193         70       5850           34  0.006
 5            1 TRUE        0.0148         26       5850           16  0.003
 6            1 TRUE        0.0187         22       5850           14  0.002
 7            1 TRUE        0.0226         48       5850           25  0.004
 8            1 TRUE        0.0491         17       5850           11  0.002
 9            1 TRUE        0.00798       164       5850           71  0.012
10            1 TRUE        0.0439         19       5850           12  0.002
# ℹ 3,634 more rows
# ℹ 7 more variables: precision <dbl>, term.id <chr>, domain <chr>,
#   subgraph.number <dbl>, term.name <chr>, relative.depth <dbl>,
#   intersection <chr>
…
Now that we have our data, we will need to wrangle it into a format ready for plotting. For all of our data wrangling steps we will be using tools from the dplyr package, which is a swiss-army knife for data wrangling of data frames.

To extract the biological processes of interest, we only want those rows where the domain is equal to BP, which we can do using the filter() function.

To filter rows of a data frame/tibble based on values in different columns, we give a logical expression as input to the filter() function to return those rows for which the expression is TRUE.

Now let’s return only those rows that have a domain of BP:

# Return only GO biological processes
bp_oe <- functional_GO_results %>%
  filter(domain == "BP")
  
bp_oe

# A tibble: 1,102 × 14
   query.number significant p.value term.size query.size overlap.size recall
          <dbl> <lgl>         <dbl>     <dbl>      <dbl>        <dbl>  <dbl>
 1            1 TRUE        0.00434       111       5850           52  0.009
 2            1 TRUE        0.0033        110       5850           52  0.009
 3            1 TRUE        0.0297         39       5850           21  0.004
 4            1 TRUE        0.0193         70       5850           34  0.006
 5            1 TRUE        0.0148         26       5850           16  0.003
 6            1 TRUE        0.0187         22       5850           14  0.002
 7            1 TRUE        0.0226         48       5850           25  0.004
 8            1 TRUE        0.0491         17       5850           11  0.002
 9            1 TRUE        0.00798       164       5850           71  0.012
10            1 TRUE        0.0439         19       5850           12  0.002
# ℹ 1,092 more rows
# ℹ 7 more variables: precision <dbl>, term.id <chr>, domain <chr>,
#   subgraph.number <dbl>, term.name <chr>, relative.depth <dbl>,
#   intersection <chr>
…
Save output to overwrite our bp_oe variable.

3. Select only the columns needed for visualization

For visualization purposes, we are only interested in the columns related to the GO terms, the significance of the terms, and information about the number of genes associated with the terms.

To extract columns from a data frame/tibble we can use the select() function. In contrast to base R, we do not need to put the column names in quotes for selection.

# Selecting columns to keep
bp_oe <- bp_oe %>%
  select(term.id, term.name, p.value, query.size, term.size, overlap.size, intersection)

bp_oe

# A tibble: 1,102 × 7
   term.id    term.name   p.value query.size term.size overlap.size intersection
   <chr>      <chr>         <dbl>      <dbl>     <dbl>        <dbl> <chr>       
 1 GO:0032606 type I int… 0.00434       5850       111           52 rnf216,polr…
 2 GO:0032479 regulation… 0.0033        5850       110           52 rnf216,polr…
 3 GO:0032480 negative r… 0.0297        5850        39           21 rnf216,otud…
 4 GO:0032481 positive r… 0.0193        5850        70           34 polr3b,polr…
 5 GO:0010644 cell commu… 0.0148        5850        26           16 pkp2,prkaca…
 6 GO:0086064 cell commu… 0.0187        5850        22           14 pkp2,prkaca…
 7 GO:0035904 aorta deve… 0.0226        5850        48           25 plxnd1,ap2b…
 8 GO:0034199 activation… 0.0491        5850        17           11 prkar2b,prk…
 9 GO:0050852 T cell rec… 0.00798       5850       164           71 psmb1,psmc4…
10 GO:0046653 tetrahydro… 0.0439        5850        19           12 mthfd1,mthf…
# ℹ 1,092 more rows
…
